<svg id="mermaid-1593941049237" width=1200 xmlns="http://www.w3.org/2000/svg" height="100%" viewBox="0 0 891 388"><style>



#mermaid-1593941049237 .label {
  font-family: 'trebuchet ms', verdana, arial;
  font-family: var(--mermaid-font-family);
  color: #333; }

#mermaid-1593941049237 .label text {
  fill: #333; }

#mermaid-1593941049237 .node rect,
#mermaid-1593941049237 .node circle,
#mermaid-1593941049237 .node ellipse,
#mermaid-1593941049237 .node polygon,
#mermaid-1593941049237 .node path {
  fill: #ECECFF;
  stroke: #9370DB;
  stroke-width: 1px; }

#mermaid-1593941049237 .node .label {
  text-align: center; }

#mermaid-1593941049237 .node.clickable {
  cursor: pointer; }

#mermaid-1593941049237 .arrowheadPath {
  fill: #333333; }

#mermaid-1593941049237 .edgePath .path {
  stroke: #333333;
  stroke-width: 1.5px; }

#mermaid-1593941049237 .edgeLabel {
  background-color: #e8e8e8;
  text-align: center; }
#mermaid-1593941049237   .edgeLabel rect {
    opacity: 0.5; }

#mermaid-1593941049237 .cluster rect {
  fill: #ffffde;
  stroke: #aaaa33;
  stroke-width: 1px; }

#mermaid-1593941049237 .cluster text {
  fill: #333; }

#mermaid-1593941049237 div.mermaidTooltip {
  position: absolute;
  text-align: center;
  max-width: 200px;
  padding: 2px;
  font-family: 'trebuchet ms', verdana, arial;
  font-family: var(--mermaid-font-family);
  font-size: 12px;
  background: #ffffde;
  border: 1px solid #aaaa33;
  border-radius: 2px;
  pointer-events: none;
  z-index: 100; }

#mermaid-1593941049237 .actor {
  stroke: #CCCCFF;
  fill: #ECECFF; }

#mermaid-1593941049237 text.actor {
  fill: black;
  stroke: none; }

#mermaid-1593941049237 .actor-line {
  stroke: grey; }

#mermaid-1593941049237 .messageLine0 {
  stroke-width: 1.5;
  stroke-dasharray: '2 2';
  stroke: #333; }

#mermaid-1593941049237 .messageLine1 {
  stroke-width: 1.5;
  stroke-dasharray: '2 2';
  stroke: #333; }

#mermaid-1593941049237 #arrowhead {
  fill: #333; }

#mermaid-1593941049237 .sequenceNumber {
  fill: white; }

#mermaid-1593941049237 #sequencenumber {
  fill: #333; }

#mermaid-1593941049237 #crosshead path {
  fill: #333 !important;
  stroke: #333 !important; }

#mermaid-1593941049237 .messageText {
  fill: #333;
  stroke: none; }

#mermaid-1593941049237 .labelBox {
  stroke: #CCCCFF;
  fill: #ECECFF; }

#mermaid-1593941049237 .labelText {
  fill: black;
  stroke: none; }

#mermaid-1593941049237 .loopText {
  fill: black;
  stroke: none; }

#mermaid-1593941049237 .loopLine {
  stroke-width: 2;
  stroke-dasharray: '2 2';
  stroke: #CCCCFF; }

#mermaid-1593941049237 .note {
  stroke: #aaaa33;
  fill: #fff5ad; }

#mermaid-1593941049237 .noteText {
  fill: black;
  stroke: none;
  font-family: 'trebuchet ms', verdana, arial;
  font-family: var(--mermaid-font-family);
  font-size: 14px; }

#mermaid-1593941049237 .activation0 {
  fill: #f4f4f4;
  stroke: #666; }

#mermaid-1593941049237 .activation1 {
  fill: #f4f4f4;
  stroke: #666; }

#mermaid-1593941049237 .activation2 {
  fill: #f4f4f4;
  stroke: #666; }


#mermaid-1593941049237 .mermaid-main-font {
  font-family: "trebuchet ms", verdana, arial;
  font-family: var(--mermaid-font-family); }

#mermaid-1593941049237 .section {
  stroke: none;
  opacity: 0.2; }

#mermaid-1593941049237 .section0 {
  fill: rgba(102, 102, 255, 0.49); }

#mermaid-1593941049237 .section2 {
  fill: #fff400; }

#mermaid-1593941049237 .section1,
#mermaid-1593941049237 .section3 {
  fill: white;
  opacity: 0.2; }

#mermaid-1593941049237 .sectionTitle0 {
  fill: #333; }

#mermaid-1593941049237 .sectionTitle1 {
  fill: #333; }

#mermaid-1593941049237 .sectionTitle2 {
  fill: #333; }

#mermaid-1593941049237 .sectionTitle3 {
  fill: #333; }

#mermaid-1593941049237 .sectionTitle {
  text-anchor: start;
  font-size: 11px;
  text-height: 14px;
  font-family: 'trebuchet ms', verdana, arial;
  font-family: var(--mermaid-font-family); }


#mermaid-1593941049237 .grid .tick {
  stroke: lightgrey;
  opacity: 0.8;
  shape-rendering: crispEdges; }
#mermaid-1593941049237   .grid .tick text {
    font-family: 'trebuchet ms', verdana, arial;
    font-family: var(--mermaid-font-family); }

#mermaid-1593941049237 .grid path {
  stroke-width: 0; }


#mermaid-1593941049237 .today {
  fill: none;
  stroke: red;
  stroke-width: 0px; }



#mermaid-1593941049237 .task {
  stroke-width: 2; }

#mermaid-1593941049237 .taskText {
  text-anchor: middle;
  font-family: 'trebuchet ms', verdana, arial;
  font-family: var(--mermaid-font-family); }

#mermaid-1593941049237 .taskText:not([font-size]) {
  font-size: 11px; }

#mermaid-1593941049237 .taskTextOutsideRight {
  fill: black;
  text-anchor: start;
  font-size: 11px;
  font-family: 'trebuchet ms', verdana, arial;
  font-family: var(--mermaid-font-family); }

#mermaid-1593941049237 .taskTextOutsideLeft {
  fill: black;
  text-anchor: end;
  font-size: 11px; }


#mermaid-1593941049237 .task.clickable {
  cursor: pointer; }

#mermaid-1593941049237 .taskText.clickable {
  cursor: pointer;
  fill: #003163 !important;
  font-weight: bold; }

#mermaid-1593941049237 .taskTextOutsideLeft.clickable {
  cursor: pointer;
  fill: #003163 !important;
  font-weight: bold; }

#mermaid-1593941049237 .taskTextOutsideRight.clickable {
  cursor: pointer;
  fill: #003163 !important;
  font-weight: bold; }


#mermaid-1593941049237 .taskText0,
#mermaid-1593941049237 .taskText1,
#mermaid-1593941049237 .taskText2,
#mermaid-1593941049237 .taskText3 {
  fill: white; }

#mermaid-1593941049237 .task0,
#mermaid-1593941049237 .task1,
#mermaid-1593941049237 .task2,
#mermaid-1593941049237 .task3 {
  fill: #8a90dd;
  stroke: #534fbc; }

#mermaid-1593941049237 .taskTextOutside0,
#mermaid-1593941049237 .taskTextOutside2 {
  fill: black; }

#mermaid-1593941049237 .taskTextOutside1,
#mermaid-1593941049237 .taskTextOutside3 {
  fill: black; }


#mermaid-1593941049237 .active0,
#mermaid-1593941049237 .active1,
#mermaid-1593941049237 .active2,
#mermaid-1593941049237 .active3 {
  fill: #bfc7ff;
  stroke: #534fbc; }

#mermaid-1593941049237 .activeText0,
#mermaid-1593941049237 .activeText1,
#mermaid-1593941049237 .activeText2,
#mermaid-1593941049237 .activeText3 {
  fill: black !important; }


#mermaid-1593941049237 .done0,
#mermaid-1593941049237 .done1,
#mermaid-1593941049237 .done2,
#mermaid-1593941049237 .done3 {
  stroke: grey;
  fill: lightgrey;
  stroke-width: 2; }

#mermaid-1593941049237 .doneText0,
#mermaid-1593941049237 .doneText1,
#mermaid-1593941049237 .doneText2,
#mermaid-1593941049237 .doneText3 {
  fill: black !important; }


#mermaid-1593941049237 .crit0,
#mermaid-1593941049237 .crit1,
#mermaid-1593941049237 .crit2,
#mermaid-1593941049237 .crit3 {
  stroke: #ff8888;
  fill: red;
  stroke-width: 2; }

#mermaid-1593941049237 .activeCrit0,
#mermaid-1593941049237 .activeCrit1,
#mermaid-1593941049237 .activeCrit2,
#mermaid-1593941049237 .activeCrit3 {
  stroke: #ff8888;
  fill: #bfc7ff;
  stroke-width: 2; }

#mermaid-1593941049237 .doneCrit0,
#mermaid-1593941049237 .doneCrit1,
#mermaid-1593941049237 .doneCrit2,
#mermaid-1593941049237 .doneCrit3 {
  stroke: #ff8888;
  fill: lightgrey;
  stroke-width: 2;
  cursor: pointer;
  shape-rendering: crispEdges; }

#mermaid-1593941049237 .milestone {
  transform: rotate(45deg) scale(0.8, 0.8); }

#mermaid-1593941049237 .milestoneText {
  font-style: italic; }

#mermaid-1593941049237 .doneCritText0,
#mermaid-1593941049237 .doneCritText1,
#mermaid-1593941049237 .doneCritText2,
#mermaid-1593941049237 .doneCritText3 {
  fill: black !important; }

#mermaid-1593941049237 .activeCritText0,
#mermaid-1593941049237 .activeCritText1,
#mermaid-1593941049237 .activeCritText2,
#mermaid-1593941049237 .activeCritText3 {
  fill: black !important; }

#mermaid-1593941049237 .titleText {
  text-anchor: middle;
  font-size: 18px;
  fill: black;
  font-family: 'trebuchet ms', verdana, arial;
  font-family: var(--mermaid-font-family); }

#mermaid-1593941049237 g.classGroup text {
  fill: #9370DB;
  stroke: none;
  font-family: 'trebuchet ms', verdana, arial;
  font-family: var(--mermaid-font-family);
  font-size: 10px; }
#mermaid-1593941049237   g.classGroup text .title {
    font-weight: bolder; }

#mermaid-1593941049237 g.clickable {
  cursor: pointer; }

#mermaid-1593941049237 g.classGroup rect {
  fill: #ECECFF;
  stroke: #9370DB; }

#mermaid-1593941049237 g.classGroup line {
  stroke: #9370DB;
  stroke-width: 1; }

#mermaid-1593941049237 .classLabel .box {
  stroke: none;
  stroke-width: 0;
  fill: #ECECFF;
  opacity: 0.5; }

#mermaid-1593941049237 .classLabel .label {
  fill: #9370DB;
  font-size: 10px; }

#mermaid-1593941049237 .relation {
  stroke: #9370DB;
  stroke-width: 1;
  fill: none; }

#mermaid-1593941049237 .dashed-line {
  stroke-dasharray: 3; }

#mermaid-1593941049237 #compositionStart {
  fill: #9370DB;
  stroke: #9370DB;
  stroke-width: 1; }

#mermaid-1593941049237 #compositionEnd {
  fill: #9370DB;
  stroke: #9370DB;
  stroke-width: 1; }

#mermaid-1593941049237 #aggregationStart {
  fill: #ECECFF;
  stroke: #9370DB;
  stroke-width: 1; }

#mermaid-1593941049237 #aggregationEnd {
  fill: #ECECFF;
  stroke: #9370DB;
  stroke-width: 1; }

#mermaid-1593941049237 #dependencyStart {
  fill: #9370DB;
  stroke: #9370DB;
  stroke-width: 1; }

#mermaid-1593941049237 #dependencyEnd {
  fill: #9370DB;
  stroke: #9370DB;
  stroke-width: 1; }

#mermaid-1593941049237 #extensionStart {
  fill: #9370DB;
  stroke: #9370DB;
  stroke-width: 1; }

#mermaid-1593941049237 #extensionEnd {
  fill: #9370DB;
  stroke: #9370DB;
  stroke-width: 1; }

#mermaid-1593941049237 .commit-id,
#mermaid-1593941049237 .commit-msg,
#mermaid-1593941049237 .branch-label {
  fill: lightgrey;
  color: lightgrey;
  font-family: 'trebuchet ms', verdana, arial;
  font-family: var(--mermaid-font-family); }

#mermaid-1593941049237 .pieTitleText {
  text-anchor: middle;
  font-size: 25px;
  fill: black;
  font-family: 'trebuchet ms', verdana, arial;
  font-family: var(--mermaid-font-family); }

#mermaid-1593941049237 .slice {
  font-family: 'trebuchet ms', verdana, arial;
  font-family: var(--mermaid-font-family); }

#mermaid-1593941049237 g.stateGroup text {
  fill: #9370DB;
  stroke: none;
  font-size: 10px;
  font-family: 'trebuchet ms', verdana, arial;
  font-family: var(--mermaid-font-family); }

#mermaid-1593941049237 g.stateGroup text {
  fill: #9370DB;
  stroke: none;
  font-size: 10px; }

#mermaid-1593941049237 g.stateGroup .state-title {
  font-weight: bolder;
  fill: black; }

#mermaid-1593941049237 g.stateGroup rect {
  fill: #ECECFF;
  stroke: #9370DB; }

#mermaid-1593941049237 g.stateGroup line {
  stroke: #9370DB;
  stroke-width: 1; }

#mermaid-1593941049237 .transition {
  stroke: #9370DB;
  stroke-width: 1;
  fill: none; }

#mermaid-1593941049237 .stateGroup .composit {
  fill: white;
  border-bottom: 1px; }

#mermaid-1593941049237 .stateGroup .alt-composit {
  fill: #e0e0e0;
  border-bottom: 1px; }

#mermaid-1593941049237 .state-note {
  stroke: #aaaa33;
  fill: #fff5ad; }
#mermaid-1593941049237   .state-note text {
    fill: black;
    stroke: none;
    font-size: 10px; }

#mermaid-1593941049237 .stateLabel .box {
  stroke: none;
  stroke-width: 0;
  fill: #ECECFF;
  opacity: 0.5; }

#mermaid-1593941049237 .stateLabel text {
  fill: black;
  font-size: 10px;
  font-weight: bold;
  font-family: 'trebuchet ms', verdana, arial;
  font-family: var(--mermaid-font-family); }

#mermaid-1593941049237 .node circle.state-start {
  fill: black;
  stroke: black; }

#mermaid-1593941049237 .node circle.state-end {
  fill: black;
  stroke: white;
  stroke-width: 1.5; }

#mermaid-1593941049237 #statediagram-barbEnd {
  fill: #9370DB; }

#mermaid-1593941049237 .statediagram-cluster rect {
  fill: #ECECFF;
  stroke: #9370DB;
  stroke-width: 1px; }

#mermaid-1593941049237 .statediagram-cluster rect.outer {
  rx: 5px;
  ry: 5px; }

#mermaid-1593941049237 .statediagram-state .divider {
  stroke: #9370DB; }

#mermaid-1593941049237 .statediagram-state .title-state {
  rx: 5px;
  ry: 5px; }

#mermaid-1593941049237 .statediagram-cluster.statediagram-cluster .inner {
  fill: white; }

#mermaid-1593941049237 .statediagram-cluster.statediagram-cluster-alt .inner {
  fill: #e0e0e0; }

#mermaid-1593941049237 .statediagram-cluster .inner {
  rx: 0;
  ry: 0; }

#mermaid-1593941049237 .statediagram-state rect.basic {
  rx: 5px;
  ry: 5px; }

#mermaid-1593941049237 .statediagram-state rect.divider {
  stroke-dasharray: 10,10;
  fill: #efefef; }

#mermaid-1593941049237 .note-edge {
  stroke-dasharray: 5; }

#mermaid-1593941049237 .statediagram-note rect {
  fill: #fff5ad;
  stroke: #aaaa33;
  stroke-width: 1px;
  rx: 0;
  ry: 0; }

:root {
  --mermaid-font-family: '"trebuchet ms", verdana, arial';
  --mermaid-font-family: "Comic Sans MS", "Comic Sans", cursive; }

:root { --mermaid-font-family: "trebuchet ms", verdana, arial;}</style><style>#mermaid-1593941049237 {
    color: rgb(0, 0, 0);
    font: 16px "trebuchet ms", verdana, arial;
  }</style><g></g><g class="grid" transform="translate(75, 338)" fill="none" font-size="10" font-family="sans-serif" text-anchor="middle"><path class="domain" stroke="currentColor" d="M0.5,-303V0.5H741.5V-303"></path><g class="tick" opacity="1" transform="translate(0.5,0)"><line stroke="currentColor" y2="-303"></line><text fill="#000" y="3" dy="1em" stroke="none" font-size="10" style="text-anchor: middle;">2020-01</text></g><g class="tick" opacity="1" transform="translate(45.5,0)"><line stroke="currentColor" y2="-303"></line><text fill="#000" y="3" dy="1em" stroke="none" font-size="10" style="text-anchor: middle;">2020-02</text></g><g class="tick" opacity="1" transform="translate(86.5,0)"><line stroke="currentColor" y2="-303"></line><text fill="#000" y="3" dy="1em" stroke="none" font-size="10" style="text-anchor: middle;">2020-03</text></g><g class="tick" opacity="1" transform="translate(131.5,0)"><line stroke="currentColor" y2="-303"></line><text fill="#000" y="3" dy="1em" stroke="none" font-size="10" style="text-anchor: middle;">2020-04</text></g><g class="tick" opacity="1" transform="translate(174.5,0)"><line stroke="currentColor" y2="-303"></line><text fill="#000" y="3" dy="1em" stroke="none" font-size="10" style="text-anchor: middle;">2020-05</text></g><g class="tick" opacity="1" transform="translate(218.5,0)"><line stroke="currentColor" y2="-303"></line><text fill="#000" y="3" dy="1em" stroke="none" font-size="10" style="text-anchor: middle;">2020-06</text></g><g class="tick" opacity="1" transform="translate(261.5,0)"><line stroke="currentColor" y2="-303"></line><text fill="#000" y="3" dy="1em" stroke="none" font-size="10" style="text-anchor: middle;">2020-07</text></g><g class="tick" opacity="1" transform="translate(306.5,0)"><line stroke="currentColor" y2="-303"></line><text fill="#000" y="3" dy="1em" stroke="none" font-size="10" style="text-anchor: middle;">2020-08</text></g><g class="tick" opacity="1" transform="translate(350.5,0)"><line stroke="currentColor" y2="-303"></line><text fill="#000" y="3" dy="1em" stroke="none" font-size="10" style="text-anchor: middle;">2020-09</text></g><g class="tick" opacity="1" transform="translate(393.5,0)"><line stroke="currentColor" y2="-303"></line><text fill="#000" y="3" dy="1em" stroke="none" font-size="10" style="text-anchor: middle;">2020-10</text></g><g class="tick" opacity="1" transform="translate(438.5,0)"><line stroke="currentColor" y2="-303"></line><text fill="#000" y="3" dy="1em" stroke="none" font-size="10" style="text-anchor: middle;">2020-11</text></g><g class="tick" opacity="1" transform="translate(481.5,0)"><line stroke="currentColor" y2="-303"></line><text fill="#000" y="3" dy="1em" stroke="none" font-size="10" style="text-anchor: middle;">2020-12</text></g><g class="tick" opacity="1" transform="translate(526.5,0)"><line stroke="currentColor" y2="-303"></line><text fill="#000" y="3" dy="1em" stroke="none" font-size="10" style="text-anchor: middle;">2021-01</text></g><g class="tick" opacity="1" transform="translate(570.5,0)"><line stroke="currentColor" y2="-303"></line><text fill="#000" y="3" dy="1em" stroke="none" font-size="10" style="text-anchor: middle;">2021-02</text></g><g class="tick" opacity="1" transform="translate(610.5,0)"><line stroke="currentColor" y2="-303"></line><text fill="#000" y="3" dy="1em" stroke="none" font-size="10" style="text-anchor: middle;">2021-03</text></g><g class="tick" opacity="1" transform="translate(655.5,0)"><line stroke="currentColor" y2="-303"></line><text fill="#000" y="3" dy="1em" stroke="none" font-size="10" style="text-anchor: middle;">2021-04</text></g><g class="tick" opacity="1" transform="translate(698.5,0)"><line stroke="currentColor" y2="-303"></line><text fill="#000" y="3" dy="1em" stroke="none" font-size="10" style="text-anchor: middle;">2021-05</text></g></g><g><rect x="0" y="48" width="853.5" height="24" class="section section0"></rect><rect x="0" y="72" width="853.5" height="24" class="section section0"></rect><rect x="0" y="96" width="853.5" height="24" class="section section0"></rect><rect x="0" y="120" width="853.5" height="24" class="section section0"></rect><rect x="0" y="144" width="853.5" height="24" class="section section1"></rect><rect x="0" y="168" width="853.5" height="24" class="section section1"></rect><rect x="0" y="192" width="853.5" height="24" class="section section1"></rect><rect x="0" y="216" width="853.5" height="24" class="section section2"></rect><rect x="0" y="240" width="853.5" height="24" class="section section2"></rect><rect x="0" y="264" width="853.5" height="24" class="section section2"></rect><rect x="0" y="288" width="853.5" height="24" class="section section2"></rect><rect x="0" y="312" width="853.5" height="24" class="section section2"></rect></g><g><rect id="a1" rx="3" ry="3" x="75" y="50" width="43" height="20" transform-origin="96.5px 60px" class="task done0 "></rect><rect id="a2" rx="3" ry="3" x="120" y="74" width="86" height="20" transform-origin="163px 84px" class="task done0 "></rect><rect id="a3" rx="3" ry="3" x="206" y="98" width="129" height="20" transform-origin="270.5px 108px" class="task active0 "></rect><rect id="a4" rx="3" ry="3" x="336" y="122" width="43" height="20" transform-origin="357.5px 132px" class="task crit0 "></rect><rect id="a4" rx="3" ry="3" x="381" y="146" width="43" height="20" transform-origin="402.5px 156px" class="task task1 "></rect><rect id="a5" rx="3" ry="3" x="425" y="170" width="43" height="20" transform-origin="446.5px 180px" class="task task1 "></rect><rect id="a6" rx="3" ry="3" x="468" y="194" width="44" height="20" transform-origin="490px 204px" class="task task1 "></rect><rect id="task1" rx="3" ry="3" x="513" y="218" width="43" height="20" transform-origin="534.5px 228px" class="task crit2 "></rect><rect id="task2" rx="3" ry="3" x="556" y="242" width="129" height="20" transform-origin="620.5px 252px" class="task task2 "></rect><rect id="task3" rx="3" ry="3" x="685" y="266" width="43" height="20" transform-origin="706.5px 276px" class="task task2 "></rect><rect id="task4" rx="3" ry="3" x="730" y="290" width="43" height="20" transform-origin="751.5px 300px" class="task task2 "></rect><rect id="task5" rx="3" ry="3" x="773" y="314" width="43" height="20" transform-origin="794.5px 324px" class="task crit2 "></rect><text id="a1-text" font-size="11" x="123" y="63.5" text-height="20" class=" taskTextOutsideRight taskTextOutside0  doneText0 width-45">阅读文献                  </text><text id="a2-text" font-size="11" x="211" y="87.5" text-height="20" class=" taskTextOutsideRight taskTextOutside0  doneText0 width-114.84375">讨论研究方向,拟定题目      </text><text id="a3-text" font-size="11" x="270.5" y="111.5" text-height="20" class=" taskText taskText0 activeText0 width-56.8125">写开题报告                </text><text id="a4-text" font-size="11" x="384" y="135.5" text-height="20" class=" taskTextOutsideRight taskTextOutside0  critText0 width-203.84375">开题答辩,根据答辩老师建议修改论文框架    </text><text id="a4-text" font-size="11" x="429" y="159.5" text-height="20" class=" taskTextOutsideRight taskTextOutside1  width-122.8125">理解论文所用模型及理论    </text><text id="a5-text" font-size="11" x="473" y="183.5" text-height="20" class=" taskTextOutsideRight taskTextOutside1  width-121.203125">收集所需数据，编写代码    </text><text id="a6-text" font-size="11" x="517" y="207.5" text-height="20" class=" taskTextOutsideRight taskTextOutside1  width-67.015625">撰写论文初稿             </text><text id="task1-text" font-size="11" x="534.5" y="231.5" text-height="20" class=" taskText taskText2  critText2 width-34">预答辩      </text><text id="task2-text" font-size="11" x="551" y="255.5" text-height="20" class=" taskTextOutsideLeft taskTextOutside2 ">根据答辩老师的建议修改论文完成二稿</text><text id="task3-text" font-size="11" x="733" y="279.5" text-height="20" class=" taskTextOutsideRight taskTextOutside2  width-78.8125">论文查重并修改</text><text id="task4-text" font-size="11" x="725" y="303.5" text-height="20" class=" taskTextOutsideLeft taskTextOutside2 ">论文盲审并进一步修改论文完成终稿</text><text id="task5-text" font-size="11" x="768" y="327.5" text-height="20" class=" taskTextOutsideLeft taskTextOutside2  critText2">论文答辩</text></g><g><text dy="0em" x="10" y="98" class="sectionTitle sectionTitle0"><tspan alignment-baseline="central" x="10">准备阶段</tspan></text><text dy="0em" x="10" y="182" class="sectionTitle sectionTitle1"><tspan alignment-baseline="central" x="10">撰写阶段</tspan></text><text dy="0em" x="10" y="278" class="sectionTitle sectionTitle2"><tspan alignment-baseline="central" x="10">答辩阶段</tspan></text></g><g class="today"><line x1="343" x2="343" y1="25" y2="363" class="today"></line></g><text x="445.5" y="25" class="titleText">论文写作计划及措施</text></svg>